{
  "version": "2",
  "mpp-vars": {
    "ostree_ref": "cs8/$arch/minimal",
    "image_size": "8589934592",
    "rootfs_uuid": "76a22bf4-f153-4541-b6c7-0332c0dfaeac",
    "bootfs_uuid": "156f0420-627b-4151-ae6f-fda298097515",
    "extra_rpms": [],
    "image_type": "ostree",
    "kernel_opts": [
      "ro",
      "console=tty0",
      "console=ttyS0",
      "systemd.log_target=console",
      "systemd.journald.forward_to_console=1"
    ]
  },
  "mpp-define-image": {
    "size": "$image_size",
    "table": {
      "uuid": "D209C89E-EA5E-4FBD-B161-B461CCE297E0",
      "label": "gpt",
      "partitions": [
        {
          "id": "efi",
          "size": 204800,
          "type": "C12A7328-F81F-11D2-BA4B-00A0C93EC93B",
          "uuid": "68B2905B-DF3E-4FB3-80FA-49D1E773AA33"
        },
        {
          "id": "boot",
          "size": 409600,
          "type": "0FC63DAF-8483-4772-8E79-3D69D8477DE4",
          "uuid": "61B2905B-DF3E-4FB3-80FA-49D1E773AA32"
        },
        {
          "id": "root",
          "type": "0FC63DAF-8483-4772-8E79-3D69D8477DE4",
          "uuid": "6264D520-3FB9-423F-8AB8-7A0A8E3D3562"
        }
      ]
    }
  },
  "pipelines": [
    {
      "mpp-import-pipeline": { "path": "../cs8-build-$arch.mpp.json", "id": "build" },
      "runner": "org.osbuild.centos8"
    },

    {
      "name": "rootfs",
      "build": "name:build",
      "stages": [
        {
          "type": "org.osbuild.kernel-cmdline",
          "options": {
            "root_fs_uuid": {"mpp-eval": "rootfs_uuid"}
          }
        },
        {
          "type": "org.osbuild.rpm",
          "options": {
            "gpgkeys": [
              { "mpp-eval": "centos_gpg_key" },
              { "mpp-eval": "redhat_gpg_key" }
            ],
            "disable_dracut": true
          },
          "inputs": {
            "packages": {
              "type": "org.osbuild.files",
              "origin": "org.osbuild.source",
              "mpp-depsolve": {
                "architecture": "$arch",
                "module-platform-id": "platform:el8",
                "baseurl": "$cs8_baseurl/BaseOS/$arch/os/",
                "repos": { "mpp-join": [
                  { "mpp-eval": "cs8_repos" },
                  [ ]
                ]},
                "packages": { "mpp-join": [
                  { "mpp-eval": "base_rpms" },
                  { "mpp-eval": "image_rpms" },
                  { "mpp-eval": "extra_rpms" },
                  [
                  ]
                ]},
                "excludes": [
                  "dracut-config-rescue"
                ]
              }
            }
          }
        },
        {
          "type": "org.osbuild.dracut",
          "options": {
            "kernel": [
              { "mpp-eval": "rpms['rootfs']['kernel-core'].evra" }
            ],
            "add_modules": [
              "base",
              "bash",
              "dracut-systemd",
              "fs-lib",
              "i18n",
              "kernel-modules",
              "kernel-modules-extra",
              "rootfs-block",
              "shutdown",
              "systemd",
              "systemd-initrd",
              "terminfo",
              "udev-rules",
              "usrmount"
            ],
            "add_drivers": [
            ],
            "install": [
              "/.buildstamp"
            ]
          }
        },
        {
          "type": "org.osbuild.locale",
          "options": {
            "language": "en_US.UTF-8"
          }
        },
        {
          "type": "org.osbuild.users",
          "options": {
            "users": {
              "root": {
                "password": "$6$xoLqEUz0cGGJRx01$H3H/bFm0myJPULNMtbSsOFd/2BnHqHkMD92Sfxd.EKM9hXTWSmELG8cf205l6dktomuTcgKGGtGDgtvHVXSWU."
              },
              "guest": {
                "password": "$6$xoLqEUz0cGGJRx01$H3H/bFm0myJPULNMtbSsOFd/2BnHqHkMD92Sfxd.EKM9hXTWSmELG8cf205l6dktomuTcgKGGtGDgtvHVXSWU."
              }
            }
          }
        },
        {
          "type": "org.osbuild.systemd",
          "options": {
            "enabled_services": [
              "NetworkManager.service",
              "rngd.service"
            ]
          }
        }
      ]
    },

    { "mpp-import-pipeline": { "path": "../cs8-$image_type-image.mpp.json", "id": "ostree-tree" } },
    { "mpp-import-pipeline": { "path": "../cs8-$image_type-image.mpp.json", "id": "ostree-commit" } },
    { "mpp-import-pipeline": { "path": "../cs8-$image_type-image.mpp.json", "id": "image-tree" } },
    { "mpp-import-pipeline": { "path": "../cs8-image.mpp.json", "id": "image" } },
    { "mpp-import-pipeline": { "path": "../cs8-image.mpp.json", "id": "qcow2" } }
  ]
}
